WEEK 4 EXERCISES
…
1.1 Step a): Specify a temporal wondow

Simple feature collection with 192 features and 11 fields
Geometry type: POINT
Dimension:     XY
Bounding box:  xmin: 2569724 ymin: 1204916 xmax: 2570927 ymax: 1205957
Projected CRS: CH1903+ / LV95
# A tibble: 192 × 12
   TierID TierName CollarID DatetimeUTC                E        N
   <chr>  <chr>       <dbl> <dttm>                 <dbl>    <dbl>
 1 002A   Sabi        12275 2015-06-30 22:00:13 2569972. 1205366.
 2 002A   Sabi        12275 2015-06-30 22:16:06 2569975. 1205637.
 3 002A   Sabi        12275 2015-06-30 22:30:19 2570266. 1205857.
 4 002A   Sabi        12275 2015-06-30 22:45:13 2570208. 1205913.
 5 002A   Sabi        12275 2015-06-30 23:00:10 2570247. 1205731.
 6 002A   Sabi        12275 2015-06-30 23:15:17 2570512. 1205279.
 7 002A   Sabi        12275 2015-06-30 23:30:38 2570684. 1205103.
 8 002A   Sabi        12275 2015-06-30 23:45:16 2570526. 1205051.
 9 002A   Sabi        12275 2015-07-01 00:00:10 2570532. 1205044.
10 002A   Sabi        12275 2015-07-01 00:15:14 2570530. 1205059.
# ℹ 182 more rows
# ℹ 6 more variables: geometry <POINT [m]>, dist_n_minus_2 <dbl>,
#   dist_n_minus_1 <dbl>, dist_n_plus_1 <dbl>, dist_n_plus_2 <dbl>,
#   stepMean <dbl>
…
Simple feature collection with 253 features and 12 fields
Geometry type: POINT
Dimension:     XY
Bounding box:  xmin: 2569889 ymin: 1204537 xmax: 2570395 ymax: 1205037
Projected CRS: CH1903+ / LV95
# A tibble: 253 × 13
   TierID TierName CollarID DatetimeUTC                E        N timelag
   <chr>  <chr>       <dbl> <dttm>                 <dbl>    <dbl>   <dbl>
 1 016A   Rosa        13972 2014-11-07 07:45:44 2570385. 1204812.     866
 2 016A   Rosa        13972 2014-11-07 08:00:10 2570389. 1204821.     908
 3 016A   Rosa        13972 2014-11-07 08:15:18 2570375. 1204787.     905
 4 016A   Rosa        13972 2014-11-07 08:30:23 2570387. 1204828.     945
 5 016A   Rosa        13972 2014-11-07 08:46:08 2570387. 1204853.     843
 6 016A   Rosa        13972 2014-11-07 09:00:11 2570387. 1204857.     904
 7 016A   Rosa        13972 2014-11-07 09:15:15 2570392. 1204821.     896
 8 016A   Rosa        13972 2014-11-07 09:30:11 2570395. 1204818.     905
 9 016A   Rosa        13972 2014-11-07 09:45:16 2570391. 1204838.     928
10 016A   Rosa        13972 2014-11-07 10:00:44 2569917. 1205031.     869
# ℹ 243 more rows
# ℹ 6 more variables: geometry <POINT [m]>, dist_n_minus_2 <dbl>,
#   dist_n_minus_1 <dbl>, dist_n_plus_1 <dbl>, dist_n_plus_2 <dbl>,
#   stepMean <dbl>
…
